tijd(seconden) setpoint(gradenC) temperatuur(gradenC) PWM(procent)
   0.0  60  20.08   1.00
   0.1  60  20.05 100.00
   0.2  60  20.08  46.60
   0.3  60  20.51   3.30
   0.4  60  20.29   1.00
   0.5  60  20.03   1.00
   0.6  60  19.96   1.00
   0.7  60  19.89   1.00
   0.8  60  19.91   1.00
   0.9  60  20.02   1.00
   1.0  60  19.87   1.00
   1.1  60  20.23   1.00
   1.2  60  19.81   1.00
   1.3  60  19.64   1.00
   1.4  60  20.05   1.00
   1.5  60  20.14   1.00
   1.6  60  19.97   1.00
   1.7  60  20.00   1.00
   1.8  60  20.20   1.00
   1.9  60  19.81   1.00
   2.0  60  19.92   1.00
   2.1  60  20.37   1.00
   2.2  60  20.09   1.00
   2.3  60  20.10   1.00
   2.4  60  20.37   1.00
   2.5  60  20.32   1.00
   2.6  60  20.50   1.00
   2.7  60  20.01   1.00
   2.8  60  20.12   1.00
   2.9  60  20.28   1.00
   3.0  60  20.38   1.00
   3.1  60  20.36   1.00
   3.2  60  20.07   1.00
   3.3  60  20.25   1.00
   3.4  60  20.45   1.00
   3.5  60  20.55   1.00
   3.6  60  20.21   1.00
   3.7  60  20.58   1.00
   3.8  60  20.41   1.00
   3.9  60  20.42   1.00
   4.0  60  20.51   1.00
   4.1  60  20.23   1.00
   4.2  60  19.89   1.00
   4.3  60  20.55   1.00
   4.4  60  20.26   1.00
   4.5  60  20.56   1.00
   4.6  60  20.60   1.00
   4.7  60  20.33   1.00
   4.8  60  20.21   1.00
   4.9  60  20.58   1.00
   5.0  60  20.33   1.00
   5.1  60  20.23   1.00
   5.2  60  20.47   1.00
   5.3  60  20.18   1.00
   5.4  60  20.28   1.00
   5.5  60  19.88   1.00
   5.6  60  20.25   1.00
   5.7  60  20.06   1.00
   5.8  60  20.49   1.00