tijd(seconden) setpoint(gradenC) temperatuur(gradenC) PWM(procent)
   0.0  60  20.08 100.00
   0.1  60  20.05 100.00
   0.2  60  20.08 100.00
   0.3  60  20.51 100.00
   0.4  60  20.29 100.00
   0.5  60  20.03 100.00
   0.6  60  19.96 100.00
   0.7  60  19.89 100.00
   0.8  60  19.91 100.00
   0.9  60  20.02 100.00
   1.0  60  19.87 100.00
   1.1  60  20.23 100.00
   1.2  60  19.81 100.00
   1.3  60  19.64 100.00
   1.4  60  20.05 100.00
   1.5  60  20.14 100.00
   1.6  60  19.97 100.00
   1.7  60  20.00 100.00
   1.8  60  20.20 100.00
   1.9  60  19.81 100.00
   2.0  60  19.92 100.00
   2.1  60  20.37 100.00
   2.2  60  20.25 100.00
   2.3  60  20.26 100.00
   2.4  60  20.62 100.00
   2.5  60  20.73 100.00
   2.6  60  21.07 100.00
   2.7  60  20.75 100.00
   2.8  60  21.02 100.00
   2.9  60  21.34 100.00
   3.0  60  21.60 100.00
   3.1  60  21.74 100.00
   3.2  60  21.61 100.00
   3.3  60  21.95 100.00
   3.4  60  22.31 100.00
   3.5  60  22.57 100.00
   3.6  60  22.39 100.00
   3.7  60  22.92 100.00
   3.8  60  22.90 100.00
   3.9  60  23.07 100.00
   4.0  60  23.32 100.00
   4.1  60  23.19 100.00
   4.2  60  23.01 100.00
   4.3  60  23.83 100.00
   4.4  60  23.69 100.00
   4.5  60  24.15 100.00
   4.6  60  24.35 100.00
   4.7  60  24.23 100.00
   4.8  60  24.26 100.00
   4.9  60  24.78 100.00
   5.0  60  24.69 100.00
   5.1  60  24.75 100.00
   5.2  60  25.14 100.00
   5.3  60  25.00 100.00
   5.4  60  25.25 100.00
   5.5  60  25.00 100.00
   5.6  60  25.53 100.00
   5.7  60  25.48 100.00
   5.8  60  26.06 100.00
   5.9  60  26.03 100.00
   6.0  60  25.98 100.00
   6.1  60  26.57 100.00
   6.2  60  26.48 100.00
   6.3  60  26.71 100.00
   6.4  60  26.66 100.00
   6.5  60  26.69 100.00
   6.6  60  27.07 100.00
   6.7  60  27.53 100.00
   6.8  60  27.27 100.00
   6.9  60  27.69 100.00
   7.0  60  27.50 100.00
   7.1  60  27.92 100.00
   7.2  60  27.64 100.00
   7.3  60  28.04 100.00
   7.4  60  28.02 100.00
   7.5  60  28.32 100.00
   7.6  60  28.64 100.00
   7.7  60  28.98 100.00
   7.8  60  28.90 100.00
   7.9  60  29.07 100.00
   8.0  60  29.15 100.00
   8.1  60  29.28 100.00
   8.2  60  29.13 100.00
   8.3  60  29.24 100.00
   8.4  60  29.90 100.00
   8.5  60  30.05 100.00
   8.6  60  29.72 100.00
   8.7  60  30.31 100.00
   8.8  60  29.86 100.00
   8.9  60  30.45 100.00
   9.0  60  30.62 100.00
   9.1  60  30.75 100.00
   9.2  60  30.63 100.00
   9.3  60  30.95 100.00
   9.4  60  30.98 100.00
   9.5  60  31.13 100.00
   9.6  60  31.14 100.00
   9.7  60  31.28 100.00
   9.8  60  31.47 100.00
   9.9  60  31.52 100.00
  10.0  60  32.10 100.00
  10.1  60  31.65 100.00
  10.2  60  32.26 100.00
  10.3  60  32.42 100.00
  10.4  60  32.31 100.00
  10.5  60  32.35 100.00
  10.6  60  32.47 100.00
  10.7  60  32.72 100.00
  10.8  60  33.13 100.00
  10.9  60  33.20 100.00
  11.0  60  32.91 100.00
  11.1  60  32.90 100.00
  11.2  60  33.13 100.00
  11.3  60  33.86 100.00
  11.4  60  33.88 100.00
  11.5  60  33.84 100.00
  11.6  60  34.05 100.00
  11.7  60  34.25 100.00
  11.8  60  34.34 100.00
  11.9  60  34.43 100.00
  12.0  60  34.37 100.00
  12.1  60  34.81 100.00
  12.2  60  34.71 100.00
  12.3  60  34.67 100.00
  12.4  60  35.28 100.00
  12.5  60  35.40 100.00
  12.6  60  35.59 100.00
  12.7  60  35.62 100.00
  12.8  60  35.62 100.00
  12.9  60  35.93 100.00
  13.0  60  35.88 100.00
  13.1  60  35.91 100.00
  13.2  60  36.33 100.00
  13.3  60  36.09 100.00
  13.4  60  36.48 100.00
  13.5  60  36.48 100.00
  13.6  60  36.20 100.00
  13.7  60  36.73 100.00
  13.8  60  36.97 100.00
  13.9  60  37.16 100.00
  14.0  60  36.68 100.00