tijd(seconden) setpoint(gradenC) temperatuur(gradenC) PWM(procent)
   0.0  60  20.08   1.00
   0.1  60  20.05 100.00
   0.2  60  20.08  46.60
   0.3  60  20.51   3.30
   0.4  60  20.29   1.00
   0.5  60  20.03   1.00
   0.6  60  19.96   1.00
   0.7  60  19.89   1.00
   0.8  60  19.91   1.00
   0.9  60  20.02   1.00
   1.0  60  19.87   1.00
   1.1  60  20.23   1.00
   1.2  60  19.81   1.00
   1.3  60  19.64   1.00
   1.4  60  20.05   1.00
   1.5  60  20.14   1.00
   1.6  60  19.97   1.00
   1.7  60  20.00   1.00