tijd(seconden) setpoint(gradenC) temperatuur(gradenC) PWM(procent)
   0.0  60  20.08   0.00
   0.1  60  20.05 100.00
   0.2  60  20.08  60.00
   0.3  60  20.51  27.50
   0.4  60  20.29   0.00
   0.5  60  20.03   0.00
   0.6  60  19.96   0.00
   0.7  60  19.89   0.00
   0.8  60  19.91   0.00
   0.9  60  20.02   0.00
   1.0  60  19.87   0.00
   1.1  60  20.23   0.00
   1.2  60  19.81   0.00
   1.3  60  19.64   0.00
   1.4  60  20.05   0.00
   1.5  60  20.14   0.00
   1.6  60  19.97   0.00
   1.7  60  20.00   0.00
   1.8  60  20.20   0.00
   1.9  60  19.81   0.00
   2.0  60  19.92   0.00
   2.1  60  20.37   0.00
   2.2  60  20.09   0.00
   2.3  60  20.10   0.00
   2.4  60  20.39   0.00
   2.5  60  20.38   0.00
   2.6  60  20.56   0.00
   2.7  60  20.07   0.00
   2.8  60  20.18   0.00
   2.9  60  20.34   0.00
   3.0  60  20.43   0.00
   3.1  60  20.41   0.00
   3.2  60  20.12   0.00
   3.3  60  20.30   0.00
   3.4  60  20.49   0.00
   3.5  60  20.60   0.00
   3.6  60  20.25   0.00
   3.7  60  20.62   0.00
   3.8  60  20.44   0.00
   3.9  60  20.46   0.00
   4.0  60  20.54   0.00
   4.1  60  20.26   0.00
   4.2  60  19.92   0.00
   4.3  60  20.58   0.00
   4.4  60  20.29   0.00
   4.5  60  20.59   0.00
   4.6  60  20.63   0.00
   4.7  60  20.35   0.00
   4.8  60  20.23   0.00
   4.9  60  20.60   0.00
   5.0  60  20.35   0.00
   5.1  60  20.25   0.00
   5.2  60  20.48   0.00
   5.3  60  20.20   0.00
   5.4  60  20.29   0.00
   5.5  60  19.89   0.00
   5.6  60  20.26   0.00
   5.7  60  20.07   0.00
   5.8  60  20.49   0.00
   5.9  60  20.31   0.00
   6.0  60  20.11   0.00
   6.1  60  20.54   0.00
   6.2  60  20.31   0.00
   6.3  60  20.39   0.00
   6.4  60  20.18   0.00
   6.5  60  20.07   0.00
   6.6  60  20.30   0.00
   6.7  60  20.60   0.00
   6.8  60  20.20   0.00
   6.9  60  20.47   0.00
   7.0  60  20.13   0.00
   7.1  60  20.40   0.00
   7.2  60  19.98   0.00
   7.3  60  20.23   0.00
   7.4  60  20.07   0.00
   7.5  60  20.21   0.00
   7.6  60  20.39   0.00
   7.7  60  20.59   0.00
   7.8  60  20.37   0.00
   7.9  60